<?xml version="1.0" encoding="UTF-8"?>
<robot generator="Robot 4.1 (Python 3.9.6 on win32)" generated="20210824 12:07:21.572" rpa="false" schemaversion="2">
<suite id="s1" name="Tests" source="c:\Tools\Dashboard\CadastroDeProdutos\tests">
<suite id="s1-s1" name="Cadastro" source="c:\Tools\Dashboard\CadastroDeProdutos\tests\cadastro.robot">
<test id="s1-s1-t1" name="Cadastro de novo produto">
<kw name="Start Session" library="base" type="SETUP">
<kw name="New Browser" library="Browser">
<arg>chromium</arg>
<arg>headless=false</arg>
<tag>BrowserControl</tag>
<tag>Setter</tag>
<doc>Create a new playwright Browser with specified options.
See `Browser, Context and Page` for more information about Browser and related concepts.</doc>
<msg timestamp="20210824 12:07:22.404" level="INFO">{"browser": "chromium", "headless": false, "handleSIGINT": true, "handleSIGTERM": true, "handleSIGHUP": true, "timeout": 30000.0, "devtools": false, "slowMo": 0.0}</msg>
<msg timestamp="20210824 12:07:22.832" level="INFO">Successfully created browser with options: {"browser":"chromium","headless":false,"handleSIGINT":true,"handleSIGTERM":true,"handleSIGHUP":true,"timeout":30000,"devtools":false,"slowMo":0}</msg>
<status status="PASS" starttime="20210824 12:07:22.404" endtime="20210824 12:07:22.836"/>
</kw>
<kw name="New Context" library="Browser">
<arg>viewport={'width': 1366, 'height': 768}</arg>
<tag>BrowserControl</tag>
<tag>Setter</tag>
<doc>Create a new BrowserContext with specified options.
See `Browser, Context and Page` for more information about BrowserContext.</doc>
<msg timestamp="20210824 12:07:22.836" level="INFO">{"acceptDownloads": false, "ignoreHTTPSErrors": false, "bypassCSP": false, "viewport": {"width": 1366, "height": 768}, "deviceScaleFactor": 1.0, "isMobile": false, "hasTouch": false, "javaScriptEnabled": true, "offline": false, "hideRfBrowser": false}</msg>
<msg timestamp="20210824 12:07:22.856" level="INFO">Successfully created context with  options:
{"acceptDownloads": false, "ignoreHTTPSErrors": false, "bypassCSP": false, "viewport": {"width": 1366, "height": 768}, "deviceScaleFactor": 1, "isMobile": false, "hasTouch": false, "javaScriptEnabled": true, "offline": false, "hideRfBrowser": false}</msg>
<status status="PASS" starttime="20210824 12:07:22.836" endtime="20210824 12:07:22.856"/>
</kw>
<kw name="New Page" library="Browser">
<arg>https://zakpay-dash-staging-2.web.app/login</arg>
<tag>BrowserControl</tag>
<tag>Setter</tag>
<doc>Open a new Page. A Page is the Playwright equivalent to a tab.
See `Browser, Context and Page` for more information about Page concept.
Returns a stable identifier for the created page.</doc>
<msg timestamp="20210824 12:07:24.171" level="INFO">Successfully initialized new page object and opened url: https://zakpay-dash-staging-2.web.app/login</msg>
<status status="PASS" starttime="20210824 12:07:22.856" endtime="20210824 12:07:24.172"/>
</kw>
<kw name="Get Text" library="Browser">
<arg>h1</arg>
<arg>contains</arg>
<arg>Gerenciamento de restaurantes</arg>
<tag>Assertion</tag>
<tag>Getter</tag>
<tag>PageContent</tag>
<doc>Returns text attribute of the element found by ``selector``.
See the `Finding elements` section for details about the selectors.</doc>
<status status="PASS" starttime="20210824 12:07:24.172" endtime="20210824 12:07:24.230"/>
</kw>
<status status="PASS" starttime="20210824 12:07:22.404" endtime="20210824 12:07:24.230"/>
</kw>
<kw name="Start Session" library="base">
<kw name="New Browser" library="Browser">
<arg>chromium</arg>
<arg>headless=false</arg>
<tag>BrowserControl</tag>
<tag>Setter</tag>
<doc>Create a new playwright Browser with specified options.
See `Browser, Context and Page` for more information about Browser and related concepts.</doc>
<msg timestamp="20210824 12:07:24.234" level="INFO">{"browser": "chromium", "headless": false, "handleSIGINT": true, "handleSIGTERM": true, "handleSIGHUP": true, "timeout": 30000.0, "devtools": false, "slowMo": 0.0}</msg>
<msg timestamp="20210824 12:07:24.575" level="INFO">Successfully created browser with options: {"browser":"chromium","headless":false,"handleSIGINT":true,"handleSIGTERM":true,"handleSIGHUP":true,"timeout":30000,"devtools":false,"slowMo":0}</msg>
<status status="PASS" starttime="20210824 12:07:24.234" endtime="20210824 12:07:24.575"/>
</kw>
<kw name="New Context" library="Browser">
<arg>viewport={'width': 1366, 'height': 768}</arg>
<tag>BrowserControl</tag>
<tag>Setter</tag>
<doc>Create a new BrowserContext with specified options.
See `Browser, Context and Page` for more information about BrowserContext.</doc>
<msg timestamp="20210824 12:07:24.576" level="INFO">{"acceptDownloads": false, "ignoreHTTPSErrors": false, "bypassCSP": false, "viewport": {"width": 1366, "height": 768}, "deviceScaleFactor": 1.0, "isMobile": false, "hasTouch": false, "javaScriptEnabled": true, "offline": false, "hideRfBrowser": false}</msg>
<msg timestamp="20210824 12:07:24.590" level="INFO">Successfully created context with  options:
{"acceptDownloads": false, "ignoreHTTPSErrors": false, "bypassCSP": false, "viewport": {"width": 1366, "height": 768}, "deviceScaleFactor": 1, "isMobile": false, "hasTouch": false, "javaScriptEnabled": true, "offline": false, "hideRfBrowser": false}</msg>
<status status="PASS" starttime="20210824 12:07:24.576" endtime="20210824 12:07:24.590"/>
</kw>
<kw name="New Page" library="Browser">
<arg>https://zakpay-dash-staging-2.web.app/login</arg>
<tag>BrowserControl</tag>
<tag>Setter</tag>
<doc>Open a new Page. A Page is the Playwright equivalent to a tab.
See `Browser, Context and Page` for more information about Page concept.
Returns a stable identifier for the created page.</doc>
<msg timestamp="20210824 12:07:26.377" level="INFO">Successfully initialized new page object and opened url: https://zakpay-dash-staging-2.web.app/login</msg>
<status status="PASS" starttime="20210824 12:07:24.590" endtime="20210824 12:07:26.377"/>
</kw>
<kw name="Get Text" library="Browser">
<arg>h1</arg>
<arg>contains</arg>
<arg>Gerenciamento de restaurantes</arg>
<tag>Assertion</tag>
<tag>Getter</tag>
<tag>PageContent</tag>
<doc>Returns text attribute of the element found by ``selector``.
See the `Finding elements` section for details about the selectors.</doc>
<status status="PASS" starttime="20210824 12:07:26.377" endtime="20210824 12:07:26.446"/>
</kw>
<status status="PASS" starttime="20210824 12:07:24.234" endtime="20210824 12:07:26.447"/>
</kw>
<kw name="Criação de novo produto" library="source">
<kw name="Fill Text" library="Browser">
<arg>id=groupName</arg>
<arg>${groupName}</arg>
<tag>PageContent</tag>
<tag>Setter</tag>
<doc>Clears and fills the given ``text`` into the text field found by ``selector``.</doc>
<msg timestamp="20210824 12:07:26.448" level="INFO">Fills the text 'outback' in the given field.</msg>
<status status="PASS" starttime="20210824 12:07:26.447" endtime="20210824 12:07:26.490"/>
</kw>
<kw name="Fill Text" library="Browser">
<arg>id=username</arg>
<arg>${username}</arg>
<tag>PageContent</tag>
<tag>Setter</tag>
<doc>Clears and fills the given ``text`` into the text field found by ``selector``.</doc>
<msg timestamp="20210824 12:07:26.491" level="INFO">Fills the text 'quality' in the given field.</msg>
<status status="PASS" starttime="20210824 12:07:26.490" endtime="20210824 12:07:26.526"/>
</kw>
<kw name="Fill Text" library="Browser">
<arg>id=password</arg>
<arg>${password}</arg>
<tag>PageContent</tag>
<tag>Setter</tag>
<doc>Clears and fills the given ``text`` into the text field found by ``selector``.</doc>
<msg timestamp="20210824 12:07:26.527" level="INFO">Fills the text 'qa1234' in the given field.</msg>
<status status="PASS" starttime="20210824 12:07:26.526" endtime="20210824 12:07:26.560"/>
</kw>
<kw name="Click" library="Browser">
<arg>id=submitButton</arg>
<tag>PageContent</tag>
<tag>Setter</tag>
<doc>Simulates mouse click on the element found by ``selector``.</doc>
<status status="PASS" starttime="20210824 12:07:26.560" endtime="20210824 12:07:26.676"/>
</kw>
<kw name="Click" library="Browser">
<arg>text=Outback</arg>
<tag>PageContent</tag>
<tag>Setter</tag>
<doc>Simulates mouse click on the element found by ``selector``.</doc>
<status status="PASS" starttime="20210824 12:07:26.676" endtime="20210824 12:07:27.424"/>
</kw>
<kw name="Click" library="Browser">
<arg>text=Zak</arg>
<tag>PageContent</tag>
<tag>Setter</tag>
<doc>Simulates mouse click on the element found by ``selector``.</doc>
<status status="PASS" starttime="20210824 12:07:27.424" endtime="20210824 12:07:27.851"/>
</kw>
<kw name="Sleep" library="BuiltIn">
<arg>2</arg>
<doc>Pauses the test executed for the given time.</doc>
<msg timestamp="20210824 12:07:29.860" level="INFO">Slept 2 seconds</msg>
<status status="PASS" starttime="20210824 12:07:27.852" endtime="20210824 12:07:29.860"/>
</kw>
<kw name="Click" library="Browser">
<arg>text=ORGANIZAÇÃO</arg>
<tag>PageContent</tag>
<tag>Setter</tag>
<doc>Simulates mouse click on the element found by ``selector``.</doc>
<status status="PASS" starttime="20210824 12:07:29.860" endtime="20210824 12:07:29.938"/>
</kw>
<kw name="Click" library="Browser">
<arg>text=Cardápio</arg>
<tag>PageContent</tag>
<tag>Setter</tag>
<doc>Simulates mouse click on the element found by ``selector``.</doc>
<status status="PASS" starttime="20210824 12:07:29.938" endtime="20210824 12:07:29.996"/>
</kw>
<kw name="Click" library="Browser">
<arg>text=Produtos</arg>
<tag>PageContent</tag>
<tag>Setter</tag>
<doc>Simulates mouse click on the element found by ``selector``.</doc>
<status status="PASS" starttime="20210824 12:07:29.996" endtime="20210824 12:07:30.116"/>
</kw>
<kw name="Click" library="Browser">
<arg>text=CRIAR PRODUTO</arg>
<tag>PageContent</tag>
<tag>Setter</tag>
<doc>Simulates mouse click on the element found by ``selector``.</doc>
<status status="PASS" starttime="20210824 12:07:30.117" endtime="20210824 12:07:32.783"/>
</kw>
<kw name="Fill Text" library="Browser">
<arg>id=name</arg>
<arg>Chá de hibisco com maça</arg>
<tag>PageContent</tag>
<tag>Setter</tag>
<doc>Clears and fills the given ``text`` into the text field found by ``selector``.</doc>
<msg timestamp="20210824 12:07:32.783" level="INFO">Fills the text 'Chá de hibisco com maça' in the given field.</msg>
<status status="PASS" starttime="20210824 12:07:32.783" endtime="20210824 12:07:33.184"/>
</kw>
<kw name="Fill Text" library="Browser">
<arg>id=barcodeFixed</arg>
<arg>7891098041203</arg>
<tag>PageContent</tag>
<tag>Setter</tag>
<doc>Clears and fills the given ``text`` into the text field found by ``selector``.</doc>
<msg timestamp="20210824 12:07:33.185" level="INFO">Fills the text '7891098041203' in the given field.</msg>
<status status="PASS" starttime="20210824 12:07:33.184" endtime="20210824 12:07:33.333"/>
</kw>
<kw name="Fill Text" library="Browser">
<arg>id=nameOnApp</arg>
<arg>Chá de hibisco com maça!</arg>
<tag>PageContent</tag>
<tag>Setter</tag>
<doc>Clears and fills the given ``text`` into the text field found by ``selector``.</doc>
<msg timestamp="20210824 12:07:33.334" level="INFO">Fills the text 'Chá de hibisco com maça!' in the given field.</msg>
<status status="PASS" starttime="20210824 12:07:33.333" endtime="20210824 12:07:33.433"/>
</kw>
<kw name="Fill Text" library="Browser">
<arg>id=description</arg>
<arg>Chá exclusivo de hibisco com maça e toque de amora.</arg>
<tag>PageContent</tag>
<tag>Setter</tag>
<doc>Clears and fills the given ``text`` into the text field found by ``selector``.</doc>
<msg timestamp="20210824 12:07:33.433" level="INFO">Fills the text 'Chá exclusivo de hibisco com maça e toque de amora.' in the given field.</msg>
<status status="PASS" starttime="20210824 12:07:33.433" endtime="20210824 12:07:33.502"/>
</kw>
<kw name="Click" library="Browser">
<arg>id=#zakDataListInput</arg>
<tag>PageContent</tag>
<tag>Setter</tag>
<doc>Simulates mouse click on the element found by ``selector``.</doc>
<status status="PASS" starttime="20210824 12:07:33.502" endtime="20210824 12:07:33.602"/>
</kw>
<kw name="Fill Text" library="Browser">
<arg>id=#zakDataListInput</arg>
<arg>21069030 - COMPLEMENTOS ALIMENTARES</arg>
<tag>PageContent</tag>
<tag>Setter</tag>
<doc>Clears and fills the given ``text`` into the text field found by ``selector``.</doc>
<msg timestamp="20210824 12:07:33.603" level="INFO">Fills the text '21069030 - COMPLEMENTOS ALIMENTARES' in the given field.</msg>
<status status="PASS" starttime="20210824 12:07:33.602" endtime="20210824 12:07:33.754"/>
</kw>
<kw name="Click" library="Browser">
<arg>xpath=//li[contains(text(),'21069030 - COMPLEMENTOS ALIMENTARES')]</arg>
<tag>PageContent</tag>
<tag>Setter</tag>
<doc>Simulates mouse click on the element found by ``selector``.</doc>
<status status="PASS" starttime="20210824 12:07:33.755" endtime="20210824 12:07:33.893"/>
</kw>
<kw name="Fill Text" library="Browser">
<arg>id=cest</arg>
<arg>2100900</arg>
<tag>PageContent</tag>
<tag>Setter</tag>
<doc>Clears and fills the given ``text`` into the text field found by ``selector``.</doc>
<msg timestamp="20210824 12:07:33.893" level="INFO">Fills the text '2100900' in the given field.</msg>
<status status="PASS" starttime="20210824 12:07:33.893" endtime="20210824 12:07:33.947"/>
</kw>
<kw name="Fill Text" library="Browser">
<arg>xpath=//*[contains(text(),'Restaurante(s)')]</arg>
<arg>Zak</arg>
<tag>PageContent</tag>
<tag>Setter</tag>
<doc>Clears and fills the given ``text`` into the text field found by ``selector``.</doc>
<msg timestamp="20210824 12:07:33.947" level="INFO">Fills the text 'Zak' in the given field.</msg>
<status status="PASS" starttime="20210824 12:07:33.947" endtime="20210824 12:07:34.009"/>
</kw>
<kw name="Click" library="Browser">
<arg>text=Zak</arg>
<tag>PageContent</tag>
<tag>Setter</tag>
<doc>Simulates mouse click on the element found by ``selector``.</doc>
<status status="PASS" starttime="20210824 12:07:34.009" endtime="20210824 12:07:34.111"/>
</kw>
<kw name="Click" library="Browser">
<arg>xpath=//*[contains(text(),'Selecione ou digite a categoria')]</arg>
<tag>PageContent</tag>
<tag>Setter</tag>
<doc>Simulates mouse click on the element found by ``selector``.</doc>
<status status="PASS" starttime="20210824 12:07:34.111" endtime="20210824 12:07:34.315"/>
</kw>
<kw name="Click" library="Browser">
<arg>xpath=//*[contains(text(),'Accountability')]</arg>
<tag>PageContent</tag>
<tag>Setter</tag>
<doc>Simulates mouse click on the element found by ``selector``.</doc>
<status status="PASS" starttime="20210824 12:07:34.315" endtime="20210824 12:07:34.744"/>
</kw>
<kw name="Click" library="Browser">
<arg>xpath=//span[contains(text(),'Subcategoria')]</arg>
<tag>PageContent</tag>
<tag>Setter</tag>
<doc>Simulates mouse click on the element found by ``selector``.</doc>
<status status="PASS" starttime="20210824 12:07:34.744" endtime="20210824 12:07:34.815"/>
</kw>
<kw name="Click" library="Browser">
<arg>xpath=//*[contains(text(),'Outros')]</arg>
<tag>PageContent</tag>
<tag>Setter</tag>
<doc>Simulates mouse click on the element found by ``selector``.</doc>
<status status="PASS" starttime="20210824 12:07:34.815" endtime="20210824 12:07:35.132"/>
</kw>
<kw name="Fill Text" library="Browser">
<arg>id=Preço base-inputmoney</arg>
<arg>25,50</arg>
<tag>PageContent</tag>
<tag>Setter</tag>
<doc>Clears and fills the given ``text`` into the text field found by ``selector``.</doc>
<msg timestamp="20210824 12:07:35.133" level="INFO">Fills the text '25,50' in the given field.</msg>
<status status="PASS" starttime="20210824 12:07:35.133" endtime="20210824 12:07:35.199"/>
</kw>
<kw name="Click" library="Browser">
<arg>xpath=//span[contains(text(),'Aplicar Preço')]</arg>
<tag>PageContent</tag>
<tag>Setter</tag>
<doc>Simulates mouse click on the element found by ``selector``.</doc>
<status status="PASS" starttime="20210824 12:07:35.200" endtime="20210824 12:07:35.272"/>
</kw>
<status status="PASS" starttime="20210824 12:07:26.447" endtime="20210824 12:07:35.273"/>
</kw>
<kw name="Take Screenshot" library="Browser" type="TEARDOWN">
<tag>PageContent</tag>
<doc>Takes a screenshot of the current window and saves it.</doc>
<msg timestamp="20210824 12:07:35.468" level="INFO" html="true">&lt;/td&gt;&lt;/tr&gt;&lt;tr&gt;&lt;td colspan="3"&gt;&lt;a href="browser/screenshot/robotframework-browser-screenshot-1.png"&gt;&lt;img src="browser/screenshot/robotframework-browser-screenshot-1.png" width="800px"&gt;&lt;/a&gt;</msg>
<status status="PASS" starttime="20210824 12:07:35.274" endtime="20210824 12:07:35.469"/>
</kw>
<status status="PASS" starttime="20210824 12:07:22.400" endtime="20210824 12:07:35.469"/>
</test>
<status status="PASS" starttime="20210824 12:07:21.596" endtime="20210824 12:07:35.486"/>
</suite>
<status status="PASS" starttime="20210824 12:07:21.572" endtime="20210824 12:07:35.499"/>
</suite>
<statistics>
<total>
<stat pass="1" fail="0" skip="0">All Tests</stat>
</total>
<tag>
</tag>
<suite>
<stat pass="1" fail="0" skip="0" id="s1" name="Tests">Tests</stat>
<stat pass="1" fail="0" skip="0" id="s1-s1" name="Cadastro">Tests.Cadastro</stat>
</suite>
</statistics>
<errors>
</errors>
</robot>
